<?xml version="1.0" encoding="UTF-8"?>
<testsuite name="Consultar idiomas" tests="1" skipped="0" failures="0" errors="0" timestamp="2024-05-04T04:02:14" hostname="ADL01630.local" time="3.213">
  <properties/>
  <testcase name="Consultar idiomas disponibles de la pagina" classname="Consultar idiomas" time="3.213"/>
  <system-out><![CDATA[
Escenario: Consultar idiomas disponibles de la pagina               ?[90m# features/prueba.feature:9?[0m
23:02:14.274 [Test worker] INFO io.cucumber.core.plugin.SerenityReporter - Running feature from classpath:features/prueba.feature
23:02:14.366 [Test worker] INFO  - 
  _____   ___   ___   _____     ___   _____     _     ___   _____   ___   ___  
 |_   _| | __| / __| |_   _|   / __| |_   _|   /_\   | _ \ |_   _| | __| |   \ 
   | |   | _|  \__ \   | |     \__ \   | |    / _ \  |   /   | |   | _|  | |) |
   |_|   |___| |___/   |_|     |___/   |_|   /_/ \_\ |_|_\   |_|   |___| |___/ 

Consultar idiomas disponibles de la pagina(consultar-idiomas;consultar-idiomas-disponibles-de-la-pagina)
--------------------------------------------------------------------------------
  ?[32mDado ?[0m?[32mque el usuario quiere consumir el api de idiomas disponibles?[0m ?[90m# pb.stepdefinitions.ConsultaIdiomasStep.prepararUsuario()?[0m
23:02:14.773 [Test worker] DEBUG net.thucydides.core.steps.StepInterceptor - STARTING STEP: ConsultaIdiomasStep.consumirServicio - performAs
23:02:14.811 [Test worker] DEBUG net.thucydides.core.steps.StepInterceptor - STARTING STEP: GetLanguages.performAs - {0} executes a GET on the resource #resource
23:02:16.831 [Test worker] DEBUG org.apache.http.impl.conn.BasicClientConnectionManager - Get connection for route {s}->https://reqres.in:443
23:02:16.869 [Test worker] DEBUG org.apache.http.impl.conn.DefaultClientConnectionOperator - Connecting to reqres.in:443
23:02:17.110 [Test worker] DEBUG org.apache.http.client.protocol.RequestAddCookies - CookieSpec selected: ignoreCookies
23:02:17.110 [Test worker] DEBUG org.apache.http.client.protocol.RequestAuthCache - Auth cache not set in the context
23:02:17.111 [Test worker] DEBUG org.apache.http.client.protocol.RequestTargetAuthentication - Target auth state: UNCHALLENGED
23:02:17.111 [Test worker] DEBUG org.apache.http.client.protocol.RequestProxyAuthentication - Proxy auth state: UNCHALLENGED
23:02:17.111 [Test worker] DEBUG org.apache.http.impl.client.DefaultHttpClient - Attempt 1 to execute request
23:02:17.111 [Test worker] DEBUG org.apache.http.impl.conn.DefaultClientConnection - Sending request: GET /api/users/ HTTP/1.1
23:02:17.111 [Test worker] DEBUG org.apache.http.wire -  >> "GET /api/users/ HTTP/1.1[\r][\n]"
23:02:17.112 [Test worker] DEBUG org.apache.http.wire -  >> "Content-Type: application/json[\r][\n]"
23:02:17.113 [Test worker] DEBUG org.apache.http.wire -  >> "Accept: */*[\r][\n]"
23:02:17.113 [Test worker] DEBUG org.apache.http.wire -  >> "Host: reqres.in[\r][\n]"
23:02:17.113 [Test worker] DEBUG org.apache.http.wire -  >> "Connection: Keep-Alive[\r][\n]"
23:02:17.113 [Test worker] DEBUG org.apache.http.wire -  >> "User-Agent: Apache-HttpClient/4.5.13 (Java/17.0.11)[\r][\n]"
23:02:17.113 [Test worker] DEBUG org.apache.http.wire -  >> "Accept-Encoding: gzip,deflate[\r][\n]"
23:02:17.113 [Test worker] DEBUG org.apache.http.wire -  >> "[\r][\n]"
23:02:17.113 [Test worker] DEBUG org.apache.http.headers - >> GET /api/users/ HTTP/1.1
23:02:17.113 [Test worker] DEBUG org.apache.http.headers - >> Content-Type: application/json
23:02:17.113 [Test worker] DEBUG org.apache.http.headers - >> Accept: */*
23:02:17.113 [Test worker] DEBUG org.apache.http.headers - >> Host: reqres.in
23:02:17.113 [Test worker] DEBUG org.apache.http.headers - >> Connection: Keep-Alive
23:02:17.113 [Test worker] DEBUG org.apache.http.headers - >> User-Agent: Apache-HttpClient/4.5.13 (Java/17.0.11)
23:02:17.114 [Test worker] DEBUG org.apache.http.headers - >> Accept-Encoding: gzip,deflate
23:02:17.177 [Test worker] DEBUG org.apache.http.wire -  << "HTTP/1.1 200 OK[\r][\n]"
23:02:17.179 [Test worker] DEBUG org.apache.http.wire -  << "Date: Sat, 04 May 2024 04:02:17 GMT[\r][\n]"
23:02:17.179 [Test worker] DEBUG org.apache.http.wire -  << "Content-Type: application/json; charset=utf-8[\r][\n]"
23:02:17.179 [Test worker] DEBUG org.apache.http.wire -  << "Transfer-Encoding: chunked[\r][\n]"
23:02:17.179 [Test worker] DEBUG org.apache.http.wire -  << "Connection: keep-alive[\r][\n]"
23:02:17.181 [Test worker] DEBUG org.apache.http.wire -  << "Report-To: {"group":"heroku-nel","max_age":3600,"endpoints":[{"url":"https://nel.heroku.com/reports?ts=1713937690&sid=c4c9725f-1ab0-44d8-820f-430df2718e11&s=KuwVz4Vg6pqySvLycgLu%2BqOBPZhgoJYfSHlCnohMLxk%3D"}]}[\r][\n]"
23:02:17.181 [Test worker] DEBUG org.apache.http.wire -  << "Reporting-Endpoints: heroku-nel=https://nel.heroku.com/reports?ts=1713937690&sid=c4c9725f-1ab0-44d8-820f-430df2718e11&s=KuwVz4Vg6pqySvLycgLu%2BqOBPZhgoJYfSHlCnohMLxk%3D[\r][\n]"
23:02:17.181 [Test worker] DEBUG org.apache.http.wire -  << "Nel: {"report_to":"heroku-nel","max_age":3600,"success_fraction":0.005,"failure_fraction":0.05,"response_headers":["Via"]}[\r][\n]"
23:02:17.182 [Test worker] DEBUG org.apache.http.wire -  << "X-Powered-By: Express[\r][\n]"
23:02:17.182 [Test worker] DEBUG org.apache.http.wire -  << "Access-Control-Allow-Origin: *[\r][\n]"
23:02:17.182 [Test worker] DEBUG org.apache.http.wire -  << "Etag: W/"3e4-2RLXvr5wTg9YQ6aH95CkYoFNuO8"[\r][\n]"
23:02:17.182 [Test worker] DEBUG org.apache.http.wire -  << "Via: 1.1 vegur[\r][\n]"
23:02:17.182 [Test worker] DEBUG org.apache.http.wire -  << "Cache-Control: max-age=14400[\r][\n]"
23:02:17.182 [Test worker] DEBUG org.apache.http.wire -  << "CF-Cache-Status: HIT[\r][\n]"
23:02:17.182 [Test worker] DEBUG org.apache.http.wire -  << "Age: 1765[\r][\n]"
23:02:17.182 [Test worker] DEBUG org.apache.http.wire -  << "Vary: Accept-Encoding[\r][\n]"
23:02:17.183 [Test worker] DEBUG org.apache.http.wire -  << "Server: cloudflare[\r][\n]"
23:02:17.183 [Test worker] DEBUG org.apache.http.wire -  << "CF-RAY: 87e5982a0a64a68c-MIA[\r][\n]"
23:02:17.184 [Test worker] DEBUG org.apache.http.wire -  << "Content-Encoding: gzip[\r][\n]"
23:02:17.184 [Test worker] DEBUG org.apache.http.wire -  << "[\r][\n]"
23:02:17.185 [Test worker] DEBUG org.apache.http.impl.conn.DefaultClientConnection - Receiving response: HTTP/1.1 200 OK
23:02:17.185 [Test worker] DEBUG org.apache.http.headers - << HTTP/1.1 200 OK
23:02:17.185 [Test worker] DEBUG org.apache.http.headers - << Date: Sat, 04 May 2024 04:02:17 GMT
23:02:17.185 [Test worker] DEBUG org.apache.http.headers - << Content-Type: application/json; charset=utf-8
23:02:17.185 [Test worker] DEBUG org.apache.http.headers - << Transfer-Encoding: chunked
23:02:17.185 [Test worker] DEBUG org.apache.http.headers - << Connection: keep-alive
23:02:17.185 [Test worker] DEBUG org.apache.http.headers - << Report-To: {"group":"heroku-nel","max_age":3600,"endpoints":[{"url":"https://nel.heroku.com/reports?ts=1713937690&sid=c4c9725f-1ab0-44d8-820f-430df2718e11&s=KuwVz4Vg6pqySvLycgLu%2BqOBPZhgoJYfSHlCnohMLxk%3D"}]}
23:02:17.185 [Test worker] DEBUG org.apache.http.headers - << Reporting-Endpoints: heroku-nel=https://nel.heroku.com/reports?ts=1713937690&sid=c4c9725f-1ab0-44d8-820f-430df2718e11&s=KuwVz4Vg6pqySvLycgLu%2BqOBPZhgoJYfSHlCnohMLxk%3D
23:02:17.186 [Test worker] DEBUG org.apache.http.headers - << Nel: {"report_to":"heroku-nel","max_age":3600,"success_fraction":0.005,"failure_fraction":0.05,"response_headers":["Via"]}
23:02:17.186 [Test worker] DEBUG org.apache.http.headers - << X-Powered-By: Express
23:02:17.186 [Test worker] DEBUG org.apache.http.headers - << Access-Control-Allow-Origin: *
23:02:17.186 [Test worker] DEBUG org.apache.http.headers - << Etag: W/"3e4-2RLXvr5wTg9YQ6aH95CkYoFNuO8"
23:02:17.186 [Test worker] DEBUG org.apache.http.headers - << Via: 1.1 vegur
23:02:17.187 [Test worker] DEBUG org.apache.http.headers - << Cache-Control: max-age=14400
23:02:17.187 [Test worker] DEBUG org.apache.http.headers - << CF-Cache-Status: HIT
23:02:17.187 [Test worker] DEBUG org.apache.http.headers - << Age: 1765
23:02:17.187 [Test worker] DEBUG org.apache.http.headers - << Vary: Accept-Encoding
23:02:17.187 [Test worker] DEBUG org.apache.http.headers - << Server: cloudflare
23:02:17.187 [Test worker] DEBUG org.apache.http.headers - << CF-RAY: 87e5982a0a64a68c-MIA
23:02:17.190 [Test worker] DEBUG org.apache.http.headers - << Content-Encoding: gzip
23:02:17.198 [Test worker] DEBUG org.apache.http.impl.client.DefaultHttpClient - Connection can be kept alive indefinitely
23:02:17.213 [Test worker] DEBUG io.restassured.internal.RequestSpecificationImpl$RestAssuredHttpBuilder - Parsing response as: application/json; charset=utf-8
23:02:17.214 [Test worker] DEBUG org.apache.http.wire -  << "170[\r][\n]"
23:02:17.214 [Test worker] DEBUG org.apache.http.wire -  << "[0x1f][0x8b][0x8][0x0][0x0][0x0][0x0][0x0][0x0][0x3][0x8d][0xd1]MK[0xc4]0[0x10][0x6][0xe0][0xbf][0x12][0xc7]kl[0xd9][0xf][0xf7][0x90][0x93]([0xa2][0x8]^[0x16][0xc1][0x83][0x88][0x8c][0xed]l[0x1b]m[0x9a]8[0x99][0xed]*[0xcb][0xfe]w[0xd9][0xae]X)][0xe9]-[0x1f][0xef][0x9b]y [[0x8]X[0x10][0x98][0x89][0x86]@[0xfc]r[0xd8],4[0x88][0x17][0xac][0xc0]L[0xa6]?[0xcb][0xf6]&[0x82][0x99]j[0xc8]Q[0x10][0xcc][0xd3][0x16]l[0xde][0xf6][0xc8][0xa1][0xad][0xc0]@A[0x9e][0xb]J^[0xab][0xb5][0x94][0x17]L[0x1f]L1[0xb1]5hXY[0x8e][0xf2]R[0xa3]#0p[0xd3][0xa6]@C[0x85][0xdd][0xe1][0xe5][0xbe][0x3][0x1a][0xb0]AA[0x6][0x3][0xa5]H[0x88]&M]]>&#x7f;<![CDATA[[0x9f]I[0xad]+[0xd2][0x15]f[0x14][0xd3][0xc9][0x99]uXP[0xf2][0x16][\n]"
23:02:17.214 [Test worker] DEBUG org.apache.http.wire -  << "[0xd8][0xe9][0x3]c[0xda]1[0xde][0xb0]&I6[0x84][\r][0xf1]q[0xc6][0xdd]>[0xd5]S<[0xb6][0x9d][0xb1][0x8c][0xe9][0x0]c[0xd6]1[0xc8]9L6[0xbe].[0x8e][0x1b][0xae][0x9d][0xc3]>[0xc1][0xd7][0xc5]X[0xc0]l[0x0]0[0xff][0x3]h()}%[0xff][0xcc]o[0xfa][0xff]p[0xeb]+[0x19];~>0[0xfe][0xbc][0x1b][0x9f][0x95][0xc8][0x15][0xc5][0xc4]yf[0x1b][0x8f]#[0xae][0xe][0xb9][0x1e][0xe4][0xbe]m[0x8d][0xa5][0x9c][0xf]P[0x16][0x1d]E[0x18]3[0xfa]J[0x18][0x9d][0xff][0x7][0xf2][0xd0][0xa6]z[0x8e][0xe5][0xbe]3[0x96][0xb1][0xf8][0xcb]x[0xd6][0x10][0xd7]!x[0x16]0[Xs5X>[0xfd][0xc9][0x9c][0x95][0x84][0xb9]m[0xff]^[0xe8]S[0xf6][0x1c][0xaf][0xde][0x89][0x82]Z[0xd2][0xc7][0x92][0xa2]Z1[0x91]V[0x99][0xaf][0x85][0xed][0xeb]Z[0xac][0xaf][0xa3][0x12][0xbf]A[0xce][0xa3][0x8a][0xc4][\r][0xb1][0xca]|[0x94][0xa8][0x90]Ia[0x8]L[0x99]E[0xa1][0xfc][0x4]v[0xbb]o[0xcc]?[0x16][0xce][0xe4][0x3][0x0][0x0]"
23:02:17.214 [Test worker] DEBUG org.apache.http.wire -  << "[\r][\n]"
23:02:17.214 [Test worker] DEBUG org.apache.http.wire -  << "0[\r][\n]"
23:02:17.215 [Test worker] DEBUG org.apache.http.wire -  << "[\r][\n]"
23:02:17.215 [Test worker] DEBUG io.restassured.internal.RequestSpecificationImpl$RestAssuredHttpBuilder - Parsed data to instance of: class org.apache.http.conn.EofSensorInputStream
23:02:17.249 [Test worker] DEBUG org.apache.http.impl.conn.BasicClientConnectionManager - Releasing connection org.apache.http.impl.conn.ManagedClientConnectionImpl@2676d96a
23:02:17.249 [Test worker] DEBUG org.apache.http.impl.conn.BasicClientConnectionManager - Connection can be kept alive indefinitely
23:02:17.284 [Test worker] DEBUG net.thucydides.core.steps.StepInterceptor - STEP DONE: {0} executes a GET on the resource #resource
{"page":1,"per_page":6,"total":12,"total_pages":2,"data":[{"id":1,"email":"george.bluth@reqres.in","first_name":"George","last_name":"Bluth","avatar":"https://reqres.in/img/faces/1-image.jpg"},{"id":2,"email":"janet.weaver@reqres.in","first_name":"Janet","last_name":"Weaver","avatar":"https://reqres.in/img/faces/2-image.jpg"},{"id":3,"email":"emma.wong@reqres.in","first_name":"Emma","last_name":"Wong","avatar":"https://reqres.in/img/faces/3-image.jpg"},{"id":4,"email":"eve.holt@reqres.in","first_name":"Eve","last_name":"Holt","avatar":"https://reqres.in/img/faces/4-image.jpg"},{"id":5,"email":"charles.morris@reqres.in","first_name":"Charles","last_name":"Morris","avatar":"https://reqres.in/img/faces/5-image.jpg"},{"id":6,"email":"tracey.ramos@reqres.in","first_name":"Tracey","last_name":"Ramos","avatar":"https://reqres.in/img/faces/6-image.jpg"}],"support":{"url":"https://reqres.in/#support-heading","text":"To keep ReqRes free, contributions towards server costs are appreciated!"}}
12total hola
23:02:17.302 [Test worker] DEBUG net.thucydides.core.steps.StepInterceptor - STEP DONE: performAs
  ?[32mCuando ?[0m?[32mrealiza la consulta de los idiomas en el servicio?[0m          ?[90m# pb.stepdefinitions.ConsultaIdiomasStep.consumirServicio()?[0m
  ?[32mEntonces ?[0m?[32mse debe obtener todos los idiomas disponibles?[0m            ?[90m# pb.stepdefinitions.ConsultaIdiomasStep.validarReponse()?[0m
23:02:17.429 [Test worker] INFO  - 
  _____   ___   ___   _____     ___     _     ___   ___   ___   ___  
 |_   _| | __| / __| |_   _|   | _ \   /_\   / __| / __| | __| |   \ 
   | |   | _|  \__ \   | |     |  _/  / _ \  \__ \ \__ \ | _|  | |) |
   |_|   |___| |___/   |_|     |_|   /_/ \_\ |___/ |___/ |___| |___/ 

Consultar idiomas disponibles de la pagina
----------------------------------------------------------------------
]]></system-out>
  <system-err><![CDATA[]]></system-err>
</testsuite>
